{
    "server": "[::]:18340",
    "users": {
        "11aa87ba-9416-4cb3-9695-b693bbb2a351": "LiLi900508"
    },
    "certificate": "/opt/tuic/bing.crt",
    "private_key": "/opt/tuic/bing.key",
    "congestion_control": "bbr",
    "alpn": ["h3", "spdy/3.1"],
    "udp_relay_ipv6": true,
    "zero_rtt_handshake": false,
    "auth_timeout": "3s",
    "max_idle_time": "10s",
    "max_external_packet_size": 1500,
    "gc_interval": "3s",
    "gc_lifetime": "15s",
    "log_level": "warn"
}
